﻿filename;protein;prediction;Q3;MCC_Helix;MCC_Sheet;MCC_Coil;Class prediction
stride_info.txt;2end;HHEEEEEHHHHHHHHHHHHHHHHCHHHCHHEHCECCCCCEEEECECCEEEECCCEEEEHHHCHHHHHHHHHHHHHHHHHHCEEECCCEEHCHCHCCHHHCECECCHHCHHHHHHHHHHHHHHHCCCCEHCECCEEEE;0.583941605839416;0.6328388528461135;0.1494228196990045;0.3162892930241769;Alpha
stride_info.txt;2r2z;CEEEHHHCHHHHHHEHHHHCHHHHHEHCHECCHCCHCEHEEEHCECCCCCCCCCEEECCEEECHHHHCHHHEEEEECEHC;0.55;0.25137489579370115;0.30520486023851523;0.5338577136668144;Alpha
stride_info.txt;2fcj;HHHHEEEEEEECCCCHHHHHHEHCCCEEEEECCCCCCHHHHHHHHHHHCHCCEEEHHCHHHHCHHHHHHHHHCCHHHCHEHHHHHHHHHHHCCHEHHHHHHHHHEHHEHHEHHE;0.5877192982456141;0.4049689440993789;0.622230404135373;0.2578043825986163;Alpha
stride_info.txt;1qg8;CCEEEEECEECCCCEEEHCHEHHEEHCCHHHCEEEECCCCCHHHHHEHHCCCCCCCEEEEECCECCHEHHCHHHHHHHHHHHHHHHHCHEEEEEECCCCCEECHHHHHHHHHHCCCCCHHEEECHECEEHEHHEHHHHHECCEHEECCCCCECCCHEEEECEHEHHHHEHEHCEECCCCCHHEHEECCCHEHEHCCCCCCCCCCHHHECHHHCHEHHCCCCCCCHHHHEHHHHHHCHC;0.6218487394957983;0.4592919424647594;0.3617535423693479;0.4680386710786113;Alpha
stride_info.txt;1gut;CHHHHHHHHHEEEEEECCEEEEEEEEEECCCCEEEEEEEEEHHHHHCEHCCHHHEEEEEECCEHEEH;0.6417910447761194;0.3486840218772033;0.49760883235118014;0.5460610955357652;Alpha
stride_info.txt;2dy0;HHHHHHHHHHHHCHHEHCCCCCCCEEEEEHEHHHHCHHHHHEHEHEHHHHHHHCCEEEEECCCCHCEHECCEEEECCCCCEECEECCCCCCCHCHECEEHECHCCCCHEEEEECCCCCCCEEEEEHHCCCCCCHHEHEHEHHHHCCCHCHHHEHEEHHECCCHHEHEHCCCCEEEEECCCCC;0.6098901098901099;0.43945157210195646;0.3469343225876919;0.4854076178197071;Alpha
stride_info.txt;1jhg;HHHHHHHHHHHHHHHHHHHHHHHHHCHHCHHHHHHCCHCHHHHHCHHHHEHHHHHHHHCHHHHHHHHHCCEEEEEECCCCHHHCHHHHHHHHHHHHHEHCCC;0.7745098039215687;0.4166305453899284;0.3199945533305529;0.4414521955542552;Alpha
stride_info.txt;2ask;HHHHHECCEEEEEHHECHCCCCCHEEEEEECCCCCCCCCCCHCCCHHHHHHHCCECCCCCCCCCCCCECCCCCECEEEEEEECCEEECHEEHCHCCECCHC;0.6336633663366337;0.44392668192253415;0.5256110011831915;0.38416821364974424;Alpha
stride_info.txt;1df4;EHHHCHHHHHHHHHHHHHHHEEHHHHEHHHCCCCCHHCHCHCHHEHEHEHHHHHCCH;0.7017543859649122;0.24700357396248182;0.3315324917763691;0.36490022459988086;Alpha
stride_info.txt;1svf;HHHHHHHHHHHHHHHHHHHHHHHHHHHCHHHHHHHHEHHHCHHHHHHHHHHHHECCHCEHEHCH;0.828125;0.2271847336988259;0.4330127018922193;0.3249619207559864;Alpha
stride_info.txt;1g6u;HHHHHHHHHHHHHHCCCCHHHHHHHHHHHHHHHHHHHHHHHHHHHHHC;0.9583333333333334;0.8106060606060606;1.0;0.8106060606060606;Alpha
stride_info.txt;1n8v;EEECCHCHCCHHHHHHHHHHHEHHHEHHEHCCCCCCCCCHHHHHHHHHHHHCCHHECHHCHHCHHHEHHHHHHHCHHEHHHHEHCCCCCCCEEHEEHHEHH;0.693069306930693;0.4442082921508496;0.23088703629569973;0.5208605537570492;Alpha
dssp_info.txt;2pvb;HEECHCHHHHHHHHHHHHHHHHHHCHHHHEEEHECHHCHCHHHHHHEEEECCCCCHHHHHHHHHHHHCCCHCCHHHCHHHHHHHHCCCCCCCCCEEEEHHHHHHHHH;0.5887850467289719;0.3290980959580783;0.24071544452661292;0.3665732928093534;Alpha
dssp_info.txt;1g4y;CHHHEHHHHHHHCHHHHHHHEEHECCCEEEHHCHHHHHHHHHHHHHHHHHHHHHHHHHHHHHHCHHHHHHHHHHCHHHCHC;0.7654320987654321;0.3805223785344278;0.3379312516832344;0.30564976687205925;Alpha
dssp_info.txt;2yve;EEHHCHHHHHHHEEHHHCCEEEHEHCHHHHHHHHCHCCCCEEEECCHCHHHHHHHHHHHHHCHCHHHEHCEHCCCCHHHHHHEEEEEHHCCCCCHHHHEHECCCCCHCHHEHHHECCCEECECCCHCHHHHCHHHHEHEHHHCCCCEEEECECHCHHHHHHHHHHHHHHHHEHCC;0.5885714285714285;0.31568419384396484;0.15182867993876537;0.330236782077409;Alpha
dssp_info.txt;3d3b;HHHHHHHHHHHHHHHHHEHHHCCCHCHHHHHEHHHHHHCCHCEEEEEHHHHHCCHEECEHHHCCHHCHHHHHHHHHHCHHHHHHHHEHHHHHHCCCCCCEEEHHHHHHHHHHHCCCCHCCHHHEHCCCCCCCEECECCC;0.6258992805755396;0.24628246438755713;0.21404667433975852;0.3502316030916972;Alpha
dssp_info.txt;1z72;HHEHECCCCEEHHHHHCCCHCHHHHHHCHHHHHHECCCHEHHHHCHHHECCEHHHHCHHHEHHCHHHEHHHHHHHHHHHHHHCHHEHCCCCHHHHHHHHHHEHCHCHEEEEECHCCHHHHHCHHHCHHHCCHHCHHEEEEEHCCHHEEHCCCCCCCCCEHEHHCHECCCCCCCCCHHHHEHEHHHHHCCHHHCHHHHHHHHHHHHHHHHHHCCECC;0.6481481481481481;0.3659546958367076;0.16666666666666666;0.3375384546121635;Alpha
dssp_info.txt;1j2j;EEHHHHHHHHHHHHHHHCCHHCHHHHHHHHHHHHHHHHHHH;0.7560975609756098;0.44989937493926113;0.563436169819011;0.3362414499360346;Alpha
dssp_info.txt;3ca7;CCCCCCCCCCCCEHEEHCCCCCCEEEECCCCECCCHCCECHHCCCEEEEH;0.54;0.17207792207792208;0.25302980154805654;0.2567645608378097;Alpha
dssp_info.txt;1nlq;ECHEEEEEEEECCCCEEECHHHHEHHHEHEHEHHHHHCHHHHHHCCCEEEECCCCCCECEEEEEHHHCCCCCCCCCHEHEEHEEEEEEECCCCCEEEEECCCCCC;0.5523809523809524;0.16288220358559113;0.44149949486308265;0.3269345834811567;Alpha
